%YAML 1.1
%TAG !u! tag:unity3d.com,2011:
--- !u!114 &11400000
MonoBehaviour:
  m_ObjectHideFlags: 0
  m_CorrespondingSourceObject: {fileID: 0}
  m_PrefabInstance: {fileID: 0}
  m_PrefabAsset: {fileID: 0}
  m_GameObject: {fileID: 0}
  m_Enabled: 1
  m_EditorHideFlags: 0
  m_Script: {fileID: 11500000, guid: af7181f404f1447c0a7a17b3070b952b, type: 3}
  m_Name: fillShape
  m_EditorClassIdentifier: 
  m_Angles:
  - m_Start: -45
    m_End: 45
    m_Order: 4
    m_Sprites:
    - {fileID: 21300000, guid: 73bfbf896de0d9f4f9cb543df782a35c, type: 3}
  - m_Start: -135
    m_End: -45
    m_Order: 3
    m_Sprites:
    - {fileID: 21300000, guid: 5b73fb2f9cad82941aa3d190e405107e, type: 3}
  - m_Start: 135
    m_End: 225
    m_Order: 2
    m_Sprites:
    - {fileID: 21300000, guid: b5cdfff96f8c5964d95445bdaba44051, type: 3}
  - m_Start: 45
    m_End: 135
    m_Order: 1
    m_Sprites:
    - {fileID: 21300000, guid: 5b73fb2f9cad82941aa3d190e405107e, type: 3}
  m_FillTexture: {fileID: 2800000, guid: 73bfbf896de0d9f4f9cb543df782a35c, type: 3}
  m_CornerSprites:
  - m_CornerType: 0
    m_Sprites:
    - {fileID: 21300000, guid: 1b107f655d68654458a17f7aaa9915c8, type: 3}
  - m_CornerType: 1
    m_Sprites:
    - {fileID: 21300000, guid: 1b107f655d68654458a17f7aaa9915c8, type: 3}
  - m_CornerType: 2
    m_Sprites:
    - {fileID: 0}
  - m_CornerType: 3
    m_Sprites:
    - {fileID: 0}
  - m_CornerType: 4
    m_Sprites:
    - {fileID: 0}
  - m_CornerType: 5
    m_Sprites:
    - {fileID: 0}
  - m_CornerType: 6
    m_Sprites:
    - {fileID: 0}
  - m_CornerType: 7
    m_Sprites:
    - {fileID: 0}
  m_FillOffset: 0
  m_UseSpriteBorders: 1
